…
 # check that the percent adds up to 100:
  df %>%
  nest(data = -c(ID)) %>%
  mutate(p = map_dbl(data, ~sum(.x[["Percent"]])) )
```

    # A tibble: 112 × 3
       ID    data                   p
       <fct> <list>             <dbl>
     1 P088  <tibble [27 × 13]>   100
     2 P089  <tibble [27 × 13]>   100
     3 P090  <tibble [27 × 13]>   100
     4 P092  <tibble [27 × 13]>   100
     5 P096  <tibble [27 × 13]>   100
     6 P094  <tibble [27 × 13]>   100
     7 P101  <tibble [27 × 13]>   100
     8 P100  <tibble [27 × 13]>   100
     9 P051  <tibble [27 × 13]>   100
    10 P095  <tibble [27 × 13]>   100
    # ℹ 102 more rows
…
