…
###########################
# CLUSTER DEGs TO PLOT #
###########################
(sig_nest <- DEGs_table_clus %>%
  mutate(Direction = ifelse(avg_log2FC > 0, "UP", "DOWN")) %>%
  filter(p_val_adj < 0.05) %>%
  group_by(Clusters, Direction) %>%
  top_n(15, abs(avg_log2FC)) %>% 
  nest() %>% mutate(n = map_dbl(data, nrow)) %>%
  arrange(match(Clusters, ord), Direction) %>%
  ungroup())
```

    # A tibble: 22 × 4
       Clusters    Direction data                   n
       <chr>       <chr>     <list>             <dbl>
     1 Superficial DOWN      <tibble [15 × 10]>    15
     2 Superficial UP        <tibble [15 × 10]>    15
     3 Upper IM    DOWN      <tibble [15 × 10]>    15
     4 Upper IM    UP        <tibble [15 × 10]>    15
     5 Lower IM    DOWN      <tibble [15 × 10]>    15
     6 Lower IM    UP        <tibble [15 × 10]>    15
     7 Basal       DOWN      <tibble [15 × 10]>    15
     8 Basal       UP        <tibble [15 × 10]>    15
     9 8           DOWN      <tibble [15 × 10]>    15
    10 8           UP        <tibble [15 × 10]>    15
    # ℹ 12 more rows
…
